STA 113FS - F23 - Colors
…
temps_months data

The temps_months data:

temps_months

# A tibble: 48 × 3
# Groups:   location [4]
   location  mean month
   <fct>    <dbl> <fct>
 1 Chicago   50.4 Apr  
 2 Chicago   74.1 Aug  
 3 Chicago   29   Dec  
 4 Chicago   28.9 Feb  
 5 Chicago   24.8 Jan  
 6 Chicago   75.8 Jul  
 7 Chicago   71.0 Jun  
 8 Chicago   38.8 Mar  
 9 Chicago   60.9 May  
10 Chicago   41.6 Nov  
# ℹ 38 more rows
…
popgrowth data

The popgrowth data:

popgrowth

# A tibble: 51 × 6
   region  division           state      pop2000  pop2010 popgrowth
   <fct>   <chr>              <chr>        <dbl>    <dbl>     <dbl>
 1 Midwest East North Central Illinois  12419293 12830632   0.0331 
 2 Midwest East North Central Indiana    6080485  6483802   0.0663 
 3 Midwest East North Central Michigan   9938444  9883640  -0.00551
 4 Midwest East North Central Ohio      11353140 11536504   0.0162 
 5 Midwest East North Central Wisconsin  5363675  5686986   0.0603 
 6 Midwest West North Central Iowa       2926324  3046355   0.0410 
 7 Midwest West North Central Kansas     2688418  2853118   0.0613 
 8 Midwest West North Central Minnesota  4919479  5303925   0.0781 
 9 Midwest West North Central Missouri   5595211  5988927   0.0704 
10 Midwest West North Central Nebraska   1711263  1826341   0.0672 
# ℹ 41 more rows
…
