STA 113FS - F23 - Exploring Flint’s water data
…
# A tibble: 3 × 2
  draw       n
  <chr>  <int>
1 first    271
2 second   271
3 third    271

We can use a similar approach to fund out how many unique homes are in the data set:

flint |>
  count(id)

# A tibble: 269 × 2
      id     n
   <dbl> <int>
 1     1     3
 2     2     3
 3     4     3
 4     5     3
 5     6     3
 6     7     3
 7     8     3
 8     9     3
 9    12     3
10    13     3
# ℹ 259 more rows
…
