STA 113FS - F23 - Visual inference
…
Augment the model

trees_aug <- as_tibble(datasets::trees) |>
  mutate(
    .resid = residuals(trees_fit),
    .fitted = fitted(trees_fit)
  )

trees_aug

# A tibble: 31 × 5
   Girth Height Volume   .resid .fitted
   <dbl>  <dbl>  <dbl>    <dbl>   <dbl>
 1   8.3     70   10.3  0.0219     2.31
 2   8.6     65   10.3  0.0343     2.30
 3   8.8     63   10.2  0.0138     2.31
 4  10.5     72   16.4 -0.0106     2.81
 5  10.7     81   18.8 -0.0430     2.98
 6  10.8     83   19.7 -0.0420     3.02
 7  11       66   15.6 -0.0557     2.80
 8  11       75   18.2 -0.0443     2.95
 9  11.1     80   22.6  0.0822     3.04
10  11.2     75   19.9  0.00926    2.98
# ℹ 21 more rows
…
