STA 113FS - F23 - Grammar of data wrangling
…
hotels |> 
  distinct(is_canceled)

# A tibble: 2 × 1
  is_canceled
        <dbl>
1           0
2           1

select / relocate()

hotels |> 
  select(hotel)

# A tibble: 119,390 × 1
   hotel       
   <chr>       
 1 Resort Hotel
 2 Resort Hotel
 3 Resort Hotel
 4 Resort Hotel
 5 Resort Hotel
 6 Resort Hotel
 7 Resort Hotel
 8 Resort Hotel
 9 Resort Hotel
10 Resort Hotel
# ℹ 119,380 more rows

hotels |> 
  relocate(is_canceled)

# A tibble: 119,390 × 32
   is_canceled hotel        lead_time arrival_date_year arrival_date_month
         <dbl> <chr>            <dbl>             <dbl> <chr>             
 1           0 Resort Hotel       342              2015 July              
 2           0 Resort Hotel       737              2015 July              
 3           0 Resort Hotel         7              2015 July              
 4           0 Resort Hotel        13              2015 July              
 5           0 Resort Hotel        14              2015 July              
 6           0 Resort Hotel        14              2015 July              
 7           0 Resort Hotel         0              2015 July              
 8           0 Resort Hotel         9              2015 July              
 9           1 Resort Hotel        85              2015 July              
10           1 Resort Hotel        75              2015 July              
# ℹ 119,380 more rows
# ℹ 27 more variables: arrival_date_week_number <dbl>,
#   arrival_date_day_of_month <dbl>, stays_in_weekend_nights <dbl>,
#   stays_in_week_nights <dbl>, adults <dbl>, children <dbl>, babies <dbl>,
#   meal <chr>, country <chr>, market_segment <chr>,
#   distribution_channel <chr>, is_repeated_guest <dbl>,
#   previous_cancellations <dbl>, previous_bookings_not_canceled <dbl>, …

arrange() / arrange(desc())

hotels |> 
  arrange(adr)

# A tibble: 119,390 × 32
   hotel        is_canceled lead_time arrival_date_year arrival_date_month
   <chr>              <dbl>     <dbl>             <dbl> <chr>             
 1 Resort Hotel           0       195              2017 March             
 2 Resort Hotel           0       342              2015 July              
 3 Resort Hotel           0       737              2015 July              
 4 Resort Hotel           0        32              2015 July              
 5 Resort Hotel           0       111              2015 July              
 6 Resort Hotel           0         0              2015 July              
 7 Resort Hotel           0         8              2015 July              
 8 Resort Hotel           0         8              2015 July              
 9 Resort Hotel           1        57              2015 July              
10 Resort Hotel           0        57              2015 July              
# ℹ 119,380 more rows
# ℹ 27 more variables: arrival_date_week_number <dbl>,
#   arrival_date_day_of_month <dbl>, stays_in_weekend_nights <dbl>,
#   stays_in_week_nights <dbl>, adults <dbl>, children <dbl>, babies <dbl>,
#   meal <chr>, country <chr>, market_segment <chr>,
#   distribution_channel <chr>, is_repeated_guest <dbl>,
#   previous_cancellations <dbl>, previous_bookings_not_canceled <dbl>, …

hotels |> 
  arrange(desc(adr))

# A tibble: 119,390 × 32
   hotel        is_canceled lead_time arrival_date_year arrival_date_month
   <chr>              <dbl>     <dbl>             <dbl> <chr>             
 1 City Hotel             1        35              2016 March             
 2 City Hotel             0         0              2017 May               
 3 Resort Hotel           0         1              2015 July              
 4 City Hotel             0        81              2016 December          
 5 Resort Hotel           1       378              2017 August            
 6 Resort Hotel           1        59              2017 August            
 7 Resort Hotel           0        31              2017 August            
 8 Resort Hotel           0       104              2017 August            
 9 Resort Hotel           0        26              2017 July              
10 Resort Hotel           1       116              2017 August            
# ℹ 119,380 more rows
# ℹ 27 more variables: arrival_date_week_number <dbl>,
#   arrival_date_day_of_month <dbl>, stays_in_weekend_nights <dbl>,
#   stays_in_week_nights <dbl>, adults <dbl>, children <dbl>, babies <dbl>,
#   meal <chr>, country <chr>, market_segment <chr>,
#   distribution_channel <chr>, is_repeated_guest <dbl>,
#   previous_cancellations <dbl>, previous_bookings_not_canceled <dbl>, …
…
# A tibble: 2 × 2
  adults babies
   <dbl>  <dbl>
1      2     10
2      1      9

mutate()

hotels |>
  mutate(people = adults + babies + children) |>
  relocate(people) |>
  arrange(desc(people))

# A tibble: 119,390 × 33
   people hotel       is_canceled lead_time arrival_date_year arrival_date_month
    <dbl> <chr>             <dbl>     <dbl>             <dbl> <chr>             
 1     55 Resort Hot…           1       338              2015 October           
 2     50 Resort Hot…           1       336              2015 September         
 3     40 Resort Hot…           1       304              2015 September         
 4     27 Resort Hot…           1       349              2015 September         
 5     27 Resort Hot…           1       352              2015 September         
 6     26 Resort Hot…           1       333              2015 September         
 7     26 Resort Hot…           1       340              2015 September         
 8     26 Resort Hot…           1       347              2015 September         
 9     26 Resort Hot…           1       354              2015 September         
10     26 Resort Hot…           1       361              2015 October           
# ℹ 119,380 more rows
# ℹ 27 more variables: arrival_date_week_number <dbl>,
#   arrival_date_day_of_month <dbl>, stays_in_weekend_nights <dbl>,
#   stays_in_week_nights <dbl>, adults <dbl>, children <dbl>, babies <dbl>,
#   meal <chr>, country <chr>, market_segment <chr>,
#   distribution_channel <chr>, is_repeated_guest <dbl>,
#   previous_cancellations <dbl>, previous_bookings_not_canceled <dbl>, …
…
